simulation/qsim/Pulse_Generator.msim.vcd
$comment
	File created using the following command:
		vcd file Pulse_Generator.msim.vcd -direction
$end
$date
	Fri Aug 30 03:07:50 2019
$end
$version
	ModelSim Version 10.5b
$end
$timescale
	1ps
$end

$scope module Pulse_Generator_vlg_vec_tst $end
$var reg 1 ! Clk $end
$var reg 1 " Trigger $end
$var wire 1 # Pulse $end

$scope module i1 $end
$var wire 1 $ gnd $end
$var wire 1 % vcc $end
$var wire 1 & unknown $end
$var tri1 1 ' devclrn $end
$var tri1 1 ( devpor $end
$var tri1 1 ) devoe $end
$var wire 1 * Pulse~output_o $end
$var wire 1 + Clk~input_o $end
$var wire 1 , Trigger~input_o $end
$var wire 1 - inst10~0_combout $end
$var wire 1 . inst~0_combout $end
$var wire 1 / inst~q $end
$var wire 1 0 inst1~0_combout $end
$var wire 1 1 inst1~feeder_combout $end
$var wire 1 2 inst1~q $end
$var wire 1 3 inst3~0_combout $end
$var wire 1 4 inst3~q $end
$var wire 1 5 inst12~0_combout $end
$var wire 1 6 inst10~q $end
$var wire 1 7 inst15~combout $end
$upscope $end
$upscope $end
$enddefinitions $end
#0
$dumpvars
0!
0"
0#
0$
1%
x&
1'
1(
1)
0*
0+
0,
1-
1.
0/
10
11
02
13
04
05
06
07
$end
#5000
1!
1+
#10000
1"
0!
0+
1,
16
0-
#15000
1!
1+
17
1*
1#
#20000
0!
0+
07
0*
0#
1/
0.
#25000
1!
1+
17
1*
1#
#30000
0!
0+
07
0*
0#
0/
1.
12
00
01
#35000
1!
1+
17
1*
1#
#40000
0!
0+
07
0*
0#
1/
0.
#45000
1!
1+
17
1*
1#
#50000
0!
0+
07
0*
0#
0/
1.
02
10
11
14
15
03
04
06
05
13
1-
#55000
1!
1+
#60000
0!
0+
#65000
1!
1+
#70000
0!
0+
#75000
1!
1+
#80000
0"
0!
0+
0,
#85000
1!
1+
#90000
0!
0+
#95000
1!
1+
#100000
0!
0+
#105000
1!
1+
#110000
0!
0+
#115000
1!
1+
#120000
1"
0!
0+
1,
16
0-
#125000
1!
1+
17
1*
1#
#130000
0!
0+
07
0*
0#
1/
0.
#135000
1!
1+
17
1*
1#
#140000
0"
0!
0+
0,
07
0*
0#
0/
1.
12
00
01
#145000
1!
1+
17
1*
1#
#150000
0!
0+
07
0*
0#
1/
0.
#155000
1!
1+
17
1*
1#
#160000
0!
0+
07
0*
0#
0/
1.
02
10
11
14
15
03
04
06
05
13
1-
#165000
1!
1+
#170000
0!
0+
#175000
1!
1+
#180000
0!
0+
#185000
1!
1+
#190000
0!
0+
#195000
1!
1+
